{
  "consumer": {
    "name": "TodoWeb"
  },
  "provider": {
    "name": "TodoApi"
  },
  "interactions": [
    {
      "description": "get todos when list is empty",
      "request": {
        "method": "GET",
        "path": "/todos"
      },
      "response": {
        "status": 200,
        "headers": {
          "Content-Type": "application/json; charset=utf-8"
        },
        "body": [

        ],
        "matchingRules": {
          "$.body": {
            "match": "type"
          }
        }
      }
    },
    {
      "description": "get todos when list is full",
      "providerState": "todo list",
      "request": {
        "method": "GET",
        "path": "/todos"
      },
      "response": {
        "status": 200,
        "headers": {
          "Content-Type": "application/json; charset=utf-8"
        },
        "body": [
          {
            "id": 1,
            "text": "test",
            "isMarked": false
          },{
            "consumer": {
              "name": "TodoWeb"
            },
            "provider": {
              "name": "TodoApi"
            },
            "interactions": [
              {
                "description": "get todos when list is empty",
                "request": {
                  "method": "GET",
                  "path": "/todos"
                },
                "response": {
                  "status": 200,
                  "headers": {
                    "Content-Type": "application/json; charset=utf-8"
                  },
                  "body": [

                  ],
                  "matchingRules": {
                    "$.body": {
                      "match": "type"
                    }
                  }
                }
              },
              {
                "description": "get todos when list is full",
                "providerState": "todo list",
                "request": {
                  "method": "GET",
                  "path": "/todos"
                },
                "response": {
                  "status": 200,
                  "headers": {
                    "Content-Type": "application/json; charset=utf-8"
                  },
                  "body": [
                    {
                      "id": 1,
                      "text": "test",
                      "isMarked": false
                    },
                    {
                      "id": 2,
                      "text": "test2",
                      "isMarked": false
                    }
                  ],
                  "matchingRules": {
                    "$.body": {
                      "match": "type"
                    }
                  }
                }
              },
              {
                "description": "create new todo with invalid text",
                "request": {
                  "method": "POST",
                  "path": "/todos",
                  "body": {
                    "text": ""
                  },
                  "matchingRules": {
                    "$.body": {
                      "match": "type"
                    }
                  }
                },
                "response": {
                  "status": 400,
                  "headers": {
                  }
                }
              },
              {
                "description": "create new todo with valid text value",
                "request": {
                  "method": "POST",
                  "path": "/todos",
                  "body": {
                    "text": "test"
                  },
                  "matchingRules": {
                    "$.body": {
                      "match": "type"
                    }
                  }
                },
                "response": {
                  "status": 201,
                  "headers": {
                    "Content-Type": "application/json; charset=utf-8"
                  },
                  "body": {
                    "id": 1,
                    "text": "test",
                    "isMarked": false
                  },
                  "matchingRules": {
                    "$.body": {
                      "match": "type"
                    }
                  }
                }
              },
              {
                "description": "mark unknown todo id",
                "request": {
                  "method": "PATCH",
                  "path": "/todo/100",
                  "body": {
                    "isMarked": true
                  },
                  "matchingRules": {
                    "$.body": {
                      "match": "type"
                    }
                  }
                },
                "response": {
                  "status": 404,
                  "headers": {
                  }
                }
              },
              {
                "description": "mark known todo id",
                "providerState": "unmarked todo",
                "request": {
                  "method": "PATCH",
                  "path": "/todo/1",
                  "body": {
                    "isMarked": true
                  },
                  "matchingRules": {
                    "$.body": {
                      "match": "type"
                    }
                  }
                },
                "response": {
                  "status": 200,
                  "headers": {
                  }
                }
              },
              {
                "description": "unmark unknown todo id",
                "request": {
                  "method": "PATCH",
                  "path": "/todo/100",
                  "body": {
                    "isMarked": false
                  },
                  "matchingRules": {
                    "$.body": {
                      "match": "type"
                    }
                  }
                },
                "response": {
                  "status": 404,
                  "headers": {
                  }
                }
              },
              {
                "description": "unmark known todo id",
                "providerState": "marked todo",
                "request": {
                  "method": "PATCH",
                  "path": "/todo/1",
                  "body": {
                    "isMarked": false
                  },
                  "matchingRules": {
                    "$.body": {
                      "match": "type"
                    }
                  }
                },
                "response": {
                  "status": 200,
                  "headers": {
                  }
                }
              },
              {
                "description": "delete unknown todo id",
                "request": {
                  "method": "DELETE",
                  "path": "/todo/100"
                },
                "response": {
                  "status": 404,
                  "headers": {
                  }
                }
              },
              {
                "description": "delete known todo id",
                "providerState": "deletable todo",
                "request": {
                  "method": "DELETE",
                  "path": "/todo/1"
                },
                "response": {
                  "status": 204,
                  "headers": {
                  }
                }
              }
            ],
            "metadata": {
              "pactSpecification": {
                "version": "2.0.0"
              }
            }
          },
          {
            "id": 2,
            "text": "test2",
            "isMarked": false
          }
        ],
        "matchingRules": {
          "$.body": {
            "match": "type"
          }
        }
      }
    },
    {
      "description": "create new todo with invalid text",
      "request": {
        "method": "POST",
        "path": "/todos",
        "body": {
          "text": ""
        },
        "matchingRules": {
          "$.body": {
            "match": "type"
          }
        }
      },
      "response": {
        "status": 400,
        "headers": {
        }
      }
    },
    {
      "description": "create new todo with valid text value",
      "request": {
        "method": "POST",
        "path": "/todos",
        "body": {
          "text": "test"
        },
        "matchingRules": {
          "$.body": {
            "match": "type"
          }
        }
      },
      "response": {
        "status": 201,
        "headers": {
          "Content-Type": "application/json; charset=utf-8"
        },
        "body": {
          "id": 1,
          "text": "test",
          "isMarked": false
        },
        "matchingRules": {
          "$.body": {
            "match": "type"
          }
        }
      }
    },
    {
      "description": "mark unknown todo id",
      "request": {
        "method": "PATCH",
        "path": "/todo/100",
        "body": {
          "isMarked": true
        },
        "matchingRules": {
          "$.body": {
            "match": "type"
          }
        }
      },
      "response": {
        "status": 404,
        "headers": {
        }
      }
    },
    {
      "description": "mark known todo id",
      "providerState": "unmarked todo",
      "request": {
        "method": "PATCH",
        "path": "/todo/1",
        "body": {
          "isMarked": true
        },
        "matchingRules": {
          "$.body": {
            "match": "type"
          }
        }
      },
      "response": {
        "status": 200,
        "headers": {
        }
      }
    },
    {
      "description": "unmark unknown todo id",
      "request": {
        "method": "PATCH",
        "path": "/todo/100",
        "body": {
          "isMarked": false
        },
        "matchingRules": {
          "$.body": {
            "match": "type"
          }
        }
      },
      "response": {
        "status": 404,
        "headers": {
        }
      }
    },
    {
      "description": "unmark known todo id",
      "providerState": "marked todo",
      "request": {
        "method": "PATCH",
        "path": "/todo/1",
        "body": {
          "isMarked": false
        },
        "matchingRules": {
          "$.body": {
            "match": "type"
          }
        }
      },
      "response": {
        "status": 200,
        "headers": {
        }
      }
    },
    {
      "description": "delete unknown todo id",
      "request": {
        "method": "DELETE",
        "path": "/todo/100"
      },
      "response": {
        "status": 404,
        "headers": {
        }
      }
    },
    {
      "description": "delete known todo id",
      "providerState": "deletable todo",
      "request": {
        "method": "DELETE",
        "path": "/todo/1"
      },
      "response": {
        "status": 204,
        "headers": {
        }
      }
    }
  ],
  "metadata": {
    "pactSpecification": {
      "version": "2.0.0"
    }
  }
}